{
    "text": " کﺭﻮﻧﺍﻭیﺭﻮﺳ کﻩ ﺐﻫ ﺱﺮﻌﺗ ﺩﺭ ﺡﺎﻟ ﺖﻏییﺭ ﺎﺴﺗ، ﺞﻬﺷ ﺐﺳیﺍﺭ ﻢﺳﺭی ﺩیگﺭی ﺩﺎﺸﺘﻫ کﻩ ﺏﺍ گﺲﺗﺮﺷ یﺎﻔﺘﻧ ﺩﺭ ﻪﻧﺩ ﻭ ﻢﺷﺎﻫﺪﻫ ﻡﻭﺍﺭﺩی ﺍﺯ ﺂﻧ ﺩﺭ ﺐﺳیﺍﺭی ﺍﺯ کﺵﻭﺮﻫﺍی ﺩیگﺭ ﺍﺯ ﺞﻤﻠﻫ ﺍیﺍﻼﺗ ﻢﺘﺣﺪﻫ، ﻢﺘﺨﺼﺻﺎﻧ ﺭﺍ ﻥگﺭﺎﻧ کﺭﺪﻫ ﺎﺴﺗ. ﺐﻫ گﻒﺘﻫ ﻢﺘﺨﺼﺻﺎﻧ، ﺍیﻥ ﺯیﺮﺳﻭیﻩ ﺎﻣیکﺭﻮﻧ کﻩ BA.۲.۷۵ ﻥﺎﻣیﺪﻫ ﻡیﺵﻭﺩ، ﻢﻣکﻥ ﺎﺴﺗ ﺐﺗﻭﺎﻧﺩ ﺐﻫ ﺱﺮﻌﺗ گﺲﺗﺮﺷ پیﺩﺍ کﻥﺩ ﻭ ﺍﺯ ﻢﺻﻮﻧیﺕ ﻥﺎﺷی ﺍﺯ ﻭﺍکﺱیﻥﺎﺳیﻮﻧ ﻭ ﺱﺎﺒﻘﻫ ﻖﺒﻟی ﻊﻓﻮﻨﺗ ﺩﺭ ﺎﻣﺎﻧ ﺐﻣﺎﻧﺩ. ﺩﺭ ﺡﺎﻟ ﺡﺎﺿﺭ ﻢﺸﺨﺻ ﻥیﺲﺗ کﻩ ﺁیﺍ ﻡیﺕﻭﺎﻧﺩ ﺏﺎﻌﺛ ﺏﺭﻭﺯ ﻥﻮﻋ ﺵﺩیﺩ ﺏیﻡﺍﺭی ﻦﺴﺒﺗ ﺐﻫ ﺱﺍیﺭ ﺯیﺭ ﺱﻭیﻪﻫﺍی ﺎُﻣیکﺭﻮﻧ ﺍﺯ ﺞﻤﻠﻫ BA.۵ ﺵﻭﺩ یﺍ ﺥیﺭ. 'ﻢﺗیﻭ ﺏیﻥیکﺭ'، ﻡﺩیﺭ ﻭیﺭﻮﺴﺸﻧﺎﺳی ﺏﺎﻟیﻥی ﺩﺭ ﻡﺍیﻭ کﻝیﻥیک ﺩﺭ ﺭﻭچﺲﺗﺭ، ﻡیﻦﻬﺳﻮﺗﺍ گﻒﺗ: ﻪﻧﻭﺯ ﺥیﻝی ﺯﻭﺩ ﺎﺴﺗ کﻩ ﺐﺗﻭﺎﻧیﻡ ﻦﺗیﺞﻫگیﺭی ﺩﺎﺸﺘﻫ ﺏﺎﺷیﻡ. ﺎﻣﺍ ﺐﻫ ﻦﻇﺭ ﻡی ﺮﺳﺩ ﺐﻫ ﺦﺻﻮﺻ ﺩﺭ ﻪﻧﺩ، ﻥﺮﺧ ﺎﻨﺘﻗﺎﻟ ﺏﺍ ﻥﻮﻋی ﺎﻓﺯﺍیﺵ ﺖﺻﺎﻋﺩی ﻪﻣﺭﺎﻫ ﺎﺴﺗ. ﻪﻣچﻥیﻥ 'ﺵیﺵی ﻝﻭ'، ﺮﺋیﺱ ﺏیﻡﺍﺭیﻩﺍی ﻊﻓﻮﻧی ﺵﺭکﺕ ﻪﻟیکﺱ کﻩ ﺎﻃﻼﻋﺎﺗ ﺕﻭﺎﻟی یﺎﺑی ﻭیﺭﻮﺳی ﺭﺍ ﺏﺭﺍی ﻡﺭﺍکﺯ کﻦﺗﺮﻟ ﻭ پیﺵگیﺭی ﺍﺯ ﺏیﻡﺍﺭی ﻩﺍی ﺍیﺍﻼﺗ ﻢﺘﺣﺪﻫ ﺕﺎﻣیﻥ ﻡیکﻥﺩ، گﻒﺗ: ﺍیﻥ ﻭﺎﻘﻋیﺕ کﻩ ﺍیﻥ ﺯیﺭ ﺱﻭیﻩ پیﺵ ﺍﺯ ﺍیﻥ ﺩﺭ ﺐﺳیﺍﺭی ﺍﺯ ﻦﻗﺎﻃ ﺞﻫﺎﻧ ﺢﺗی ﺏﺍ ﺲﻃﻮﺣ پﺍییﻥ ﺕﺭ ﻦﻇﺍﺮﺗ ﻭ کﻦﺗﺮﻟ ﻭیﺭﻮﺳی ﺶﻧﺎﺳﺍیی ﺵﺪﻫ، ﻦﺷﺎﻨﻫ ﺍﻮﻟیﻩ گﺲﺗﺮﺷ ﻭیﺭﻮﺳ ﺎﺴﺗ. ﻝیپی ﺕﻭکﺭﺎﻟ، ﺍﺯ ﻢﺘﺨﺼﺻﺎﻧ ﻡﻮﺴﺴﻫ ﺖﺤﻗیﻕﺎﺗ ﻊﻠﻣی ﻭ ﺺﻨﻌﺗی ژﻥﻮﻣیک ﻭ ﺯیﺲﺗ ﺶﻧﺎﺳی یکپﺍﺭچﻩ ﺩﺭ ﺪﻬﻟی ﻥﻭ گﻒﺗ: ﺝﺩیﺪﺗﺭیﻥ ﻭیﺭﻮﺳ ﺞﻬﺷ یﺎﻔﺘﻫ ﺩﺭ چﻥﺩیﻥ ﺍیﺎﻠﺗ ﻪﻧﺩ ﻢﺷﺎﻫﺪﻫ ﺵﺪﻫ ﻭ ﺐﻫ ﻦﻇﺭ ﻡی ﺮﺳﺩ ﺱﺭیﻊﺗﺭ ﺍﺯ ﺎﻧﻭﺎﻋ ﺩیگﺭ ﺩﺭ کﺵﻭﺭ ﺩﺭ ",
    "shortText": "",
    "termVector": [],
    "language": {
        "lang": "fa"
    },
    "entities": [],
    "mentions": [
        "ner",
        "wikipedia"
    ],
    "nbest": false,
    "sentence": false,
    "minSelectorScore": 0.2
}
