{
    "text": "أنهت الشرطة الكاتالونية السبت حفلا صاخبا استمر نحو 40 ساعة في مرأب قرب برشلونة وشارك فيه نحو 300 شخص للاحتفال بالعام الجديد في ظلّ الأزمة الوبائية. وأعلنت الشرطة في تغريدة على تويتر 'سنلاحق المنظّمين والمشاركين' قضائياً، مشيرة إلى أنّ الغرامة بحق من شاركوا في هذه الحفلة غير القانونية في لينارس-دل-فالس على مسافة 30 كلم شمال-شرق برشلونة ستتخطى ثلاثة آلاف يورو. وأوضحت أنه 'تم توقيف المنظّمين الثلاثة الذين سيمثلون أمام القضاء في الساعات القليلة المقبلة'، لافتة إلى انّ الغرامة بحقهم قد تتجاوز 600 ألف يورو. وأظهرت لقطات فيديو حصلت عليها فرانس برس شباناً لا يضعون كمامات ويكسرون قواعد التباعد، بينما يدخنون ويرقصون أمام مجسم لجمجمة كبيرة وضِعت فوقها قبعة 'سانتا كلوز' قبل اندلاع مشاجرات قصيرة على حلبة الرقص عند وصول الشرطة.",
    "shortText": "",
    "termVector": [],
    "language": {
        "lang": "ar"
    },
    "entities": [],
    "mentions": [
        "ner",
        "wikipedia"
    ],
    "nbest": false,
    "sentence": false,
    "minSelectorScore": 0.2
}
