{
    "text": "政府は新型コロナウイルスの水際対策に関し、入国者数の上限を現行の1日1万人から2万人に緩和する検討に入った。感染状況を見極めた上で正式決定し、6月中にも実施する方針だ。複数の政府関係者が10日、明らかにした。　政府はオミクロン株の感染拡大を受け、2021年12月に水際対策を強化し、入国者の上限を1日5000人から3500人に引き下げた。今年3月以降は感染状況の改善に伴って段階的に緩和し、4月10日からは上限1万人に拡大。ビジネス関係者や留学生らの入国を認めている。　しかし、国内外の経済関係者らからは「入国制限が厳しすぎる」などと経済活動の再開を加速させるよう求める声が相次いでいる。こうした状況を受け、岸田文雄首相は訪英中の今月5日の講演で「6月には他の主要7カ国（G7）諸国並みに円滑な入国が可能となるよう水際対策をさらに緩和していく」と述べ、入国制限緩和に前向きな姿勢を示していた。",
    "shortText": "",
    "termVector": [],
    "language": {
        "lang": "ja"
    },
    "entities": [],
    "mentions": [
        "ner",
        "wikipedia"
    ],
    "nbest": false,
    "sentence": false,
    "minSelectorScore": 0.2
}
