{
    "text": "Christine Lagarde, choix controvers\u00E9 \u00E0 la t\u00EAte de la BCE. En nommant la pr\u00E9sidente du FMI, les Europ\u00E9ens ont fait un choix politique plut\u00F4t que technocratique : elle n\u2019est ni \u00E9conomiste ni banqui\u00E8re centrale. Christine Lagarde, pr\u00E9sidente de la Banque centrale europ\u00E9enne (BCE) ? L\u2019annonce de la d\u00E9cision, mardi 2 juillet, a laiss\u00E9 les sp\u00E9cialistes de la politique mon\u00E9taire dubitatifs. L\u2019actuelle directrice g\u00E9n\u00E9rale du Fonds mon\u00E9taire internationale (FMI) n\u2019est ni \u00E9conomiste ni banqui\u00E8re centrale, et elle se retrouve au poste de grand argentier de la zone euro, la v\u00E9ritable cl\u00E9 de vo\u00FBte d\u2019un syst\u00E8me encore fragile. Elle remplacera l\u2019Italien Mario Draghi quand le mandat de ce dernier arrivera \u00E0 \u00E9ch\u00E9ance, le 31 octobre. Si son nom se murmurait ces derniers jours, ce choix constitue n\u00E9anmoins une surprise, d\u2019autant que Christine Lagarde avait exclu cette \u00E9ventualit\u00E9, par le pass\u00E9. \u00AB Non, non, non, non, non, non\u2026 Je ne suis pas int\u00E9ress\u00E9e par un emploi europ\u00E9en, ni \u00E0 la BCE ni \u00E0 la Commission\u2026 \u00BB, confiait-elle encore au Financial Times, en septembre 2018. \u00AB C\u2019est un peu curieux [comme choix], parce qu\u2019elle n\u2019est pas connue pour \u00EAtre l\u2019une des grandes penseuses de l\u2019\u00E9conomie \u00BB, estime Alicia Levine, strat\u00E9giste \u00E0 BNY Mellon, une banque am\u00E9ricaine. \u00AB \u00C7a n\u2019aurait pas \u00E9t\u00E9 mon premier choix \u00BB, rench\u00E9rit, anonymement, l\u2019analyste d\u2019une grande banque europ\u00E9enne. \u00AB En cas de crise de la zone euro, je ne sais pas si elle aura l\u2019autorit\u00E9 intellectuelle n\u00E9cessaire \u00BB, ajoute un autre. \u00AB On s\u2019est tous mis \u00E0 fouiller dans ses discours pass\u00E9s pour conna\u00EEtre sa position sur les questions de politique mon\u00E9taire \u00BB, explique Frederik Ducrozet, analyste \u00E0 la banque priv\u00E9e suisse Pictet. En nommant Christine Lagarde, 63 ans, les Vingt-Huit ont fait un choix politique plut\u00F4t que technocratique. L\u2019ancienne ministre de l\u2019\u00E9conomie de Nicolas Sarkozy (2007-2011), \u00E0 la t\u00EAte du FMI depuis huit ans, a l\u2019immense avantage de tr\u00E8s bien conna\u00EEtre les leaders europ\u00E9ens. Elle est particuli\u00E8rement appr\u00E9ci\u00E9e de la chanceli\u00E8re allemande, Angela Merkel, qui lui a rendu hommage mardi : \u00AB Elle a \u00E9t\u00E9 choisie parce qu\u2019elle a pris un r\u00F4le de leader indiscutable au FMI, et je crois que, si elle peut faire \u00E7a, elle peut diriger la BCE. \u00BB Pendant la crise de la zone euro, Christine Lagarde \u00E9tait aussi en premi\u00E8re ligne, en tant que membre de la \u00AB tro\u00EFka \u00BB \u2013 compos\u00E9e de la Commission europ\u00E9enne, de la BCE et du FMI \u2013 qui supervisait les plans de sauvetage de la Gr\u00E8ce. Elle avait \u00E0 l\u2019\u00E9poque pouss\u00E9 Berlin, sans grand succ\u00E8s, \u00E0 faire preuve de plus de flexibilit\u00E9 dans la restructuration de la dette d\u2019Ath\u00E8nes. Cette connaissance intime des rouages politiques europ\u00E9ens est un atout-cl\u00E9. En 2012, quand Mario Draghi, d\u00E9sormais pr\u00E9sident sortant de la BCE, avait prononc\u00E9 son fameux discours promettant de faire \u00AB tout ce qui est n\u00E9cessaire \u00BB (whatever it takes) pour soutenir la monnaie unique, l\u2019Italien avait eu besoin d\u2019aller chercher des soutiens politiques, y compris en Allemagne. Par ailleurs, le charisme de l\u2019ancienne pratiquante de natation synchronis\u00E9e est salu\u00E9 de tous. L\u2019avocate, qui a fait l\u2019essentiel de sa carri\u00E8re pr\u00E9politique aux Etats-Unis, au cabinet Baker McKenzie, parle un anglais parfait. \u00AB Elle est une excellente oratrice qui jouit d\u2019une tr\u00E8s bonne r\u00E9putation au plan international \u00BB, pr\u00E9cise encore M. Ducrozet. De quoi faire passer ses messages ais\u00E9ment aupr\u00E8s des march\u00E9s financiers, ce qui est une tr\u00E8s large partie du travail de pr\u00E9sident de la BCE. Habitu\u00E9e des c\u00E9nacles des grands de ce monde, passant de G20 en Forum de Davos, la \u00AB reine Christine \u00BB \u00E0 l\u2019ind\u00E9niable \u00E9l\u00E9gance est devenue depuis une d\u00E9cennie une figure incontournable parmi les dirigeants de l\u2019\u00E9conomie mondiale. Et sa capacit\u00E9 \u00E0 man\u0153uvrer, \u00E0 \u00E9viter les pi\u00E8ges, lui a toujours servi. En 2007, en tant que ministre de l\u2019\u00E9conomie, elle avait autoris\u00E9 le recours inhabituel \u00E0 une proc\u00E9dure arbitrale, qui avait d\u00E9bouch\u00E9 sur un versement de 400 millions d\u2019euros \u00E0 Bernard Tapie, dans son diff\u00E9rend avec le Cr\u00E9dit lyonnais. Cette d\u00E9cision lui a valu, en 2016, d\u2019\u00EAtre condamn\u00E9e pour \u00AB n\u00E9gligence \u00BB par la Cour de justice de la R\u00E9publique, mais elle a \u00E9t\u00E9 dispens\u00E9e de peine. Ce profil suffira-t-il, si elle devait \u00EAtre confront\u00E9e \u00E0 une nouvelle crise de la zone euro ? \u00AB Est-ce qu\u2019elle sera capable de refaire un whatever it takes ?, s\u2019interroge un analyste. Je ne suis pas s\u00FBr. Mario Draghi sera tr\u00E8s difficile \u00E0 remplacer. Son sens du timing, sa compr\u00E9hension des march\u00E9s \u00E9taient uniques.",
    "shortText": "",
    "termVector": [],
    "language": {
        "lang": "fr"
    },
    "entities": [],
    "mentions": [
        "ner",
        "wikipedia"
    ],
    "nbest": false,
    "sentence": false,
    "minSelectorScore": 0.3
}
