{
    "text": "Use as ferramentas de partilha que encontra na página de artigo. Todos os conteúdos do PÚBLICO são protegidos por Direitos de Autor ao abrigo da legislação portuguesa, conforme os Termos e Condições.Os assinantes do jornal PÚBLICO têm direito a oferecer até 6 artigos exclusivos por mês a amigos ou familiares, usando a opção 'Oferecer artigo' no topo da página. Apoie o jornalismo de qualidade do PÚBLICO. O Barcelona vai receber os jogos em casa no Estádio Lluís Companys em 2023/24, devido às obras de renovação de Camp Nou, numa mudança que irá custar entre 15 a 20 milhões de euros, anunciou o clube. Numa apresentação conjunta com a câmara municipal de Barcelona, o presidente Joan Laporta explicou que o Estádio Olímpico Lluís Companys terá todas as condições para receber os adeptos do emblema catalão e revelou que o clube ficará responsável por toda a segurança e limpeza do recinto antes, durante e depois dos jogos. 'Esta alteração irá custar entre 15 a 20 milhões de euros e tudo faremos para garantir que os adeptos do Barcelona se sintam em casa durante a época de 2023/24. As obras de renovação já começaram, mas na próxima temporada ainda será possível receber jogos em Camp Nou com todas as condições necessárias. Em 2023/24, teremos mesmo que abandonar temporariamente a nossa casa', disse Laporta. Construído em 1927, o Estádio Olímpico foi renovado em 1989 para receber os Jogos Olímpicos Barcelona 1992 e foi a ‘casa’ do Espanyol em 1997 e 2009.",
    "shortText": "",
    "termVector": [],
    "language": {
        "lang": "pt"
    },
    "entities": [],
    "mentions": [
        "ner",
        "wikipedia"
    ],
    "nbest": false,
    "sentence": false,
    "minSelectorScore": 0.2
}
