{
    "text": "O Presidente da Indonésia, Joko Widodo, cujo país acolhe este ano a cimeira do G20, vai visitar a Ucrânia e a Rússia, para se reunir com os líderes de ambos os países, anunciaram esta quarta-feira as autoridades indonésias. O ministro dos Negócios Estrangeiros da Indonésia, Retno Marsudi, confirmou que Widodo vai reunir-se com o homólogo russo, Vladimir Putin, em Moscovo, e, em Kiev, com o Presidente ucraniano, Volodymyr Zelensky. Widodo 'optou por contribuir, não optou por ficar em silêncio. É o primeiro líder asiático a visitar os dois países', destacou Marsudi, numa conferência de imprensa em que não divulgou as datas exactas dos encontros. A imprensa oficial indonésia noticiou que Joko Widodo deverá viajar até à Alemanha, para participar na cimeira do G7 (grupo dos sete países mais desenvolvidos), entre domingo e terça-feira, devendo o encontro com Putin acontecer no dia 30, em Moscovo.",
    "shortText": "",
    "termVector": [],
    "language": {
        "lang": "pt"
    },
    "entities": [],
    "mentions": [
        "ner",
        "wikipedia"
    ],
    "nbest": false,
    "sentence": false,
    "minSelectorScore": 0.2
}
