{
  "annotations": {
    "list": [
      {
        "builtIn": 1,
        "datasource": "-- Grafana --",
        "enable": true,
        "hide": true,
        "iconColor": "rgba(0, 211, 255, 1)",
        "name": "Annotations & Alerts",
        "type": "dashboard"
      }
    ]
  },
  "description": "Home dashboard: main entry point for all other dashboards used to monitor Sherpa",
  "editable": true,
  "gnetId": null,
  "graphTooltip": 0,
  "id": 1,
  "links": [],
  "panels": [
    {
      "content": "<div class=\"text-center dashboard-header\">\n  <span>Sherpa Home</span>\n</div>",
      "datasource": null,
      "editable": true,
      "gridPos": {
        "h": 3,
        "w": 24,
        "x": 0,
        "y": 0
      },
      "id": 1,
      "links": [],
      "mode": "html",
      "options": {},
      "style": {},
      "title": "",
      "transparent": true,
      "type": "text"
    },
    {
      "datasource": null,
      "folderId": 0,
      "gridPos": {
        "h": 14,
        "w": 12,
        "x": 0,
        "y": 3
      },
      "headings": false,
      "id": 3,
      "limit": 30,
      "links": [],
      "options": {},
      "query": "",
      "recent": false,
      "search": true,
      "starred": false,
      "tags": [
        "prometheus"
      ],
      "title": "Dashboards",
      "type": "dashlist"
    },
    {
      "datasource": null,
      "editable": true,
      "error": false,
      "gridPos": {
        "h": 14,
        "w": 12,
        "x": 12,
        "y": 3
      },
      "id": 4,
      "links": [],
      "options": {},
      "title": "Plugins",
      "type": "pluginlist"
    }
  ],
  "schemaVersion": 1,
  "style": "dark",
  "tags": [],
  "templating": {
    "list": []
  },
  "time": {
    "from": "now-15m",
    "to": "now"
  },
  "timepicker": {
    "hidden": true,
    "refresh_intervals": [
      "1s",
      "2s",
      "5s",
      "10s",
      "30s",
      "1m",
      "5m",
      "15m",
      "30m",
      "1h",
      "2h",
      "1d"
    ],
    "time_options": [
      "5m",
      "15m",
      "1h",
      "6h",
      "12h",
      "24h",
      "2d",
      "7d",
      "30d"
    ],
    "type": "timepicker"
  },
  "timezone": "browser",
  "title": "Home",
  "uid": "zEXxcWIZl",
  "variables": {
    "list": []
  },
  "version": 1
}
